{
  constants: {
    nrInitialLength: 250,
    nrAttachLength: 28.125,
    minBounceUp: -0.8125,
    minBounceDown: 0.8125,
    minBounceHoriz: 0.8125,
    wormGravity: 0.02593994140625,
    wormAcc: 0.16021728515625,
    wormMaxVel: 0.4999847412109375,
    jumpForce: 0.9918212890625,
    maxAimVel: 0.05243098363280296,
    aimAcc: 0.002996056340634823,
    ninjaropeGravity: 0.01556396484375,
    nrMinLength: 10.625,
    nrMaxLength: 250,
    bonusGravity: 0.0091552734375,
    wormFricMult: 0.8899999856948853,
    aimFric: 0.8299999833106995,
    nrThrowVel: 8,
    nrForce: 0.0833333358168602,
    bonusBounce: 0.10000000149011612,
    bonusFlickerTime: 220,
    aimMaxAngle: 1.5707963705062866,
    aimMinAngle: -1.5217089653015137,
    nrAdjustVel: 1.5,
    nrColourBegin: 23,
    nrColourEnd: 29,
    bonusExplodeRisk: 250,
    bonusHealthVar: 25,
    bonusMinHealth: 25,
    firstBloodColour: 80,
    numBloodColours: 5,
    bObjGravity: 0.030517578125,
    splinterLarpaVelDiv: 3,
    splinterCracklerVelDiv: 3,
    fallDamageHoriz: 0,
    fallDamageDown: 0,
    fallDamageUp: 0,
    hFallDamage: false,
    hBonusReloadOnly: false,
  },
  weapons: [
    {
      parts: 1,
      bulletType: 0,
      bulletSpeed: 1.7999999523162842,
      bulletSpeedInherit: 0.5555555820465088,
      distribution: 0.1068115234375,
      recoil: 0.05000000074505806,
      ammo: 1,
      delay: 0,
      loadingTime: 600,
      leaveShells: 0,
      leaveShellDelay: 28,
      fireCone: 0,
      laserSight: false,
      laserBeam: false,
      launchSound: 5,
      playReloadSound: true,
      name: 'FLASHBANG GRENADE',
    },
    {
      parts: 1,
      bulletType: 1,
      bulletSpeed: 4.5,
      bulletSpeedInherit: 0.2222222238779068,
      distribution: 0.00762939453125,
      recoil: 0.20000000298023224,
      ammo: 1,
      delay: 0,
      loadingTime: 480,
      leaveShells: 0,
      leaveShellDelay: 1,
      fireCone: 0,
      laserSight: false,
      laserBeam: false,
      launchSound: 10,
      playReloadSound: true,
      name: 'RPZB 43',
    },
    {
      parts: 3,
      bulletType: 2,
      bulletSpeed: 0.20999999344348907,
      bulletSpeedInherit: 0,
      distribution: 0.152587890625,
      recoil: 0,
      ammo: 200,
      delay: 2,
      loadingTime: 1000,
      leaveShells: 0,
      leaveShellDelay: 1,
      fireCone: 0,
      laserSight: false,
      laserBeam: false,
      launchSound: -1,
      playReloadSound: true,
      name: 'CONCRETE',
    },
    {
      parts: 9,
      bulletType: 3,
      bulletSpeed: 1.5,
      bulletSpeedInherit: 0.6666666865348816,
      distribution: 0.457763671875,
      recoil: 0.4000000059604645,
      ammo: 8,
      delay: 30,
      loadingTime: 800,
      leaveShells: 0,
      leaveShellDelay: 1,
      fireCone: 9,
      laserSight: false,
      laserBeam: false,
      launchSound: 0,
      playReloadSound: true,
      name: 'XM1014',
    },
    {
      parts: 2,
      bulletType: 4,
      bulletSpeed: 7,
      bulletSpeedInherit: 0.1428571492433548,
      distribution: 0.4999847412109375,
      recoil: 0,
      ammo: 1,
      delay: 0,
      loadingTime: 480,
      leaveShells: 0,
      leaveShellDelay: 1,
      fireCone: 0,
      laserSight: false,
      laserBeam: false,
      launchSound: -1,
      playReloadSound: true,
      name: 'SHIELD',
    },
    {
      parts: 1,
      bulletType: 5,
      bulletSpeed: 1,
      bulletSpeedInherit: 1,
      distribution: 0.006103515625,
      recoil: 0,
      ammo: 255,
      delay: 32,
      loadingTime: 10000,
      leaveShells: 0,
      leaveShellDelay: 1,
      fireCone: 0,
      laserSight: false,
      laserBeam: false,
      launchSound: 5,
      playReloadSound: false,
      name: 'KNIFE',
    },
    {
      parts: 1,
      bulletType: 6,
      bulletSpeed: 1.100000023841858,
      bulletSpeedInherit: 0.9090908765792847,
      distribution: 0,
      recoil: 0.15000000596046448,
      ammo: 1,
      delay: 0,
      loadingTime: 480,
      leaveShells: 0,
      leaveShellDelay: 1,
      fireCone: 8,
      laserSight: false,
      laserBeam: false,
      launchSound: 3,
      playReloadSound: false,
      name: 'THUNDER',
    },
    {
      parts: 1,
      bulletType: 7,
      bulletSpeed: 1.899999976158142,
      bulletSpeedInherit: 0.5263158082962036,
      distribution: 0.1068115234375,
      recoil: 0.05000000074505806,
      ammo: 1,
      delay: 0,
      loadingTime: 600,
      leaveShells: 0,
      leaveShellDelay: 1,
      fireCone: 0,
      laserSight: false,
      laserBeam: false,
      launchSound: 5,
      playReloadSound: true,
      name: 'CHEMICAL GRENADE',
    },
    {
      parts: 1,
      bulletType: 8,
      bulletSpeed: 1.7000000476837158,
      bulletSpeedInherit: 0.5882352590560913,
      distribution: 0.1068115234375,
      recoil: 0.05000000074505806,
      ammo: 1,
      delay: 0,
      loadingTime: 600,
      leaveShells: 0,
      leaveShellDelay: 1,
      fireCone: 0,
      laserSight: false,
      laserBeam: false,
      launchSound: 5,
      playReloadSound: true,
      name: 'CLUSTER BOMB',
    },
    {
      parts: 1,
      bulletType: 9,
      bulletSpeed: 1.7999999523162842,
      bulletSpeedInherit: 0.5555555820465088,
      distribution: 0.2288818359375,
      recoil: 0.12999999523162842,
      ammo: 30,
      delay: 9,
      loadingTime: 480,
      leaveShells: 0,
      leaveShellDelay: 1,
      fireCone: 10,
      laserSight: false,
      laserBeam: false,
      launchSound: 2,
      playReloadSound: false,
      name: 'MP5',
    },
    {
      parts: 1,
      bulletType: 10,
      bulletSpeed: 4.5,
      bulletSpeedInherit: 0.2222222238779068,
      distribution: 0.00762939453125,
      recoil: 0.5,
      ammo: 1,
      delay: 0,
      loadingTime: 400,
      leaveShells: 0,
      leaveShellDelay: 1,
      fireCone: 6,
      laserSight: false,
      laserBeam: false,
      launchSound: 2,
      playReloadSound: false,
      name: 'CROSSBOW',
    },
    {
      parts: 1,
      bulletType: 11,
      bulletSpeed: 1.600000023841858,
      bulletSpeedInherit: 0.625,
      distribution: 0.0762939453125,
      recoil: 0.12999999523162842,
      ammo: 32,
      delay: 12,
      loadingTime: 200,
      leaveShells: 0,
      leaveShellDelay: 1,
      fireCone: 6,
      laserSight: false,
      laserBeam: false,
      launchSound: 1,
      playReloadSound: true,
      name: 'IMI UZI',
    },
    {
      parts: 1,
      bulletType: 12,
      bulletSpeed: 1.899999976158142,
      bulletSpeedInherit: 0.5263158082962036,
      distribution: 0.0457763671875,
      recoil: 0.30000001192092896,
      ammo: 5,
      delay: 48,
      loadingTime: 900,
      leaveShells: 0,
      leaveShellDelay: 1,
      fireCone: 7,
      laserSight: false,
      laserBeam: false,
      launchSound: 29,
      playReloadSound: true,
      name: 'STEYR SSG 69',
    },
    {
      parts: 5,
      bulletType: 13,
      bulletSpeed: 1.399999976158142,
      bulletSpeedInherit: 0,
      distribution: 0.1983642578125,
      recoil: 0,
      ammo: 220,
      delay: 1,
      loadingTime: 750,
      leaveShells: 0,
      leaveShellDelay: 1,
      fireCone: 0,
      laserSight: false,
      laserBeam: false,
      launchSound: -1,
      playReloadSound: false,
      name: 'DRILL',
    },
    {
      parts: 1,
      bulletType: 14,
      bulletSpeed: 34,
      bulletSpeedInherit: 0.029411764815449715,
      distribution: 0.4999847412109375,
      recoil: 0,
      ammo: 50,
      delay: 2,
      loadingTime: 1200,
      leaveShells: 0,
      leaveShellDelay: 1,
      fireCone: 2,
      laserSight: false,
      laserBeam: false,
      launchSound: 13,
      playReloadSound: true,
      name: 'CARBINE',
    },
    {
      parts: 1,
      bulletType: 15,
      bulletSpeed: 1.600000023841858,
      bulletSpeedInherit: 0.625,
      distribution: 0.11444091796875,
      recoil: 0.10999999940395355,
      ammo: 15,
      delay: 6,
      loadingTime: 150,
      leaveShells: 0,
      leaveShellDelay: 1,
      fireCone: 0,
      laserSight: false,
      laserBeam: false,
      launchSound: 11,
      playReloadSound: false,
      name: 'THOMPSON',
    },
    {
      parts: 1,
      bulletType: 16,
      bulletSpeed: 1.7999999523162842,
      bulletSpeedInherit: 0.5555555820465088,
      distribution: 0.152587890625,
      recoil: 0.1599999964237213,
      ammo: 30,
      delay: 13,
      loadingTime: 600,
      leaveShells: 0,
      leaveShellDelay: 28,
      fireCone: 0,
      laserSight: false,
      laserBeam: false,
      launchSound: 27,
      playReloadSound: true,
      name: 'AK47',
    },
    {
      parts: 1,
      bulletType: 17,
      bulletSpeed: 1,
      bulletSpeedInherit: 1,
      distribution: 0.0762939453125,
      recoil: 0.15000000596046448,
      ammo: 1,
      delay: 0,
      loadingTime: 500,
      leaveShells: 0,
      leaveShellDelay: 1,
      fireCone: 0,
      laserSight: false,
      laserBeam: false,
      launchSound: 5,
      playReloadSound: true,
      name: 'CALTROP',
    },
    {
      parts: 1,
      bulletType: 18,
      bulletSpeed: 2.200000047683716,
      bulletSpeedInherit: 0.45454543828964233,
      distribution: 0.003814697265625,
      recoil: 0.800000011920929,
      ammo: 1,
      delay: 0,
      loadingTime: 700,
      leaveShells: 0,
      leaveShellDelay: 1,
      fireCone: 2,
      laserSight: false,
      laserBeam: false,
      launchSound: 3,
      playReloadSound: true,
      name: 'FIELD GUN',
    },
    {
      parts: 3,
      bulletType: 19,
      bulletSpeed: 2.200000047683716,
      bulletSpeedInherit: 0.45454543828964233,
      distribution: 0.12969970703125,
      recoil: 1,
      ammo: 3,
      delay: 70,
      loadingTime: 900,
      leaveShells: 0,
      leaveShellDelay: 1,
      fireCone: 20,
      laserSight: false,
      laserBeam: false,
      launchSound: 29,
      playReloadSound: false,
      name: 'KATYUSHA',
    },
    {
      parts: 1,
      bulletType: 20,
      bulletSpeed: 3,
      bulletSpeedInherit: 0.3333333432674408,
      distribution: 0.0152587890625,
      recoil: 0.3499999940395355,
      ammo: 90,
      delay: 7,
      loadingTime: 1000,
      leaveShells: 0,
      leaveShellDelay: 1,
      fireCone: 20,
      laserSight: false,
      laserBeam: false,
      launchSound: -1,
      playReloadSound: true,
      name: 'JETPACK',
    },
    {
      parts: 1,
      bulletType: 21,
      bulletSpeed: 1.850000023841858,
      bulletSpeedInherit: 0.5405405163764954,
      distribution: 0.3662109375,
      recoil: 0.07999999821186066,
      ammo: 100,
      delay: 2,
      loadingTime: 1300,
      leaveShells: 0,
      leaveShellDelay: 1,
      fireCone: 0,
      laserSight: false,
      laserBeam: false,
      launchSound: 28,
      playReloadSound: true,
      name: 'XM214 MINIGUN',
    },
    {
      parts: 1,
      bulletType: 22,
      bulletSpeed: 4,
      bulletSpeedInherit: 0.25,
      distribution: 0.003814697265625,
      recoil: 0.6000000238418579,
      ammo: 1,
      delay: 0,
      loadingTime: 480,
      leaveShells: 0,
      leaveShellDelay: 1,
      fireCone: 2,
      laserSight: false,
      laserBeam: false,
      launchSound: 4,
      playReloadSound: false,
      name: 'RPG-76 KOMAR',
    },
    {
      parts: 8,
      bulletType: 23,
      bulletSpeed: 1.7000000476837158,
      bulletSpeedInherit: 0.5882352590560913,
      distribution: 0.3662109375,
      recoil: 0.550000011920929,
      ammo: 8,
      delay: 76,
      loadingTime: 950,
      leaveShells: 0,
      leaveShellDelay: 1,
      fireCone: 9,
      laserSight: false,
      laserBeam: false,
      launchSound: 0,
      playReloadSound: true,
      name: 'M3 SUPER 90',
    },
    {
      parts: 1,
      bulletType: 24,
      bulletSpeed: 0.4000000059604645,
      bulletSpeedInherit: 0,
      distribution: 0,
      recoil: 1.5,
      ammo: 1,
      delay: 0,
      loadingTime: 510,
      leaveShells: 0,
      leaveShellDelay: 1,
      fireCone: 8,
      laserSight: false,
      laserBeam: false,
      launchSound: 4,
      playReloadSound: false,
      name: 'L.P.M.A II',
    },
    {
      parts: 6,
      bulletType: 25,
      bulletSpeed: 3.3499999046325684,
      bulletSpeedInherit: 0.2985074818134308,
      distribution: 0.48828125,
      recoil: 0.10000000149011612,
      ammo: 1,
      delay: 0,
      loadingTime: 800,
      leaveShells: 0,
      leaveShellDelay: 1,
      fireCone: 0,
      laserSight: false,
      laserBeam: false,
      launchSound: 4,
      playReloadSound: true,
      name: 'CATAPULT',
    },
    {
      parts: 1,
      bulletType: 26,
      bulletSpeed: 1.7000000476837158,
      bulletSpeedInherit: 0.5882352590560913,
      distribution: 0.00762939453125,
      recoil: 1.5,
      ammo: 5,
      delay: 180,
      loadingTime: 1000,
      leaveShells: 0,
      leaveShellDelay: 1,
      fireCone: 8,
      laserSight: false,
      laserBeam: false,
      launchSound: 19,
      playReloadSound: true,
      name: 'MATCHLOCK PISTOL',
    },
    {
      parts: 1,
      bulletType: 27,
      bulletSpeed: 1.5,
      bulletSpeedInherit: 0.6666666865348816,
      distribution: 0.152587890625,
      recoil: 0,
      ammo: 1,
      delay: 0,
      loadingTime: 1000,
      leaveShells: 0,
      leaveShellDelay: 1,
      fireCone: 0,
      laserSight: false,
      laserBeam: false,
      launchSound: 5,
      playReloadSound: true,
      name: 'DYNAMITE',
    },
    {
      parts: 1,
      bulletType: 29,
      bulletSpeed: 1.899999976158142,
      bulletSpeedInherit: 0.5263158082962036,
      distribution: 0.030517578125,
      recoil: 0.5,
      ammo: 10,
      delay: 120,
      loadingTime: 1200,
      leaveShells: 0,
      leaveShellDelay: 1,
      fireCone: 14,
      laserSight: true,
      laserBeam: false,
      launchSound: 26,
      playReloadSound: true,
      name: 'AWP',
    },
    {
      parts: 1,
      bulletType: 30,
      bulletSpeed: 2.700000047683716,
      bulletSpeedInherit: 0,
      distribution: 0.06103515625,
      recoil: 1.2000000476837158,
      ammo: 4,
      delay: 57,
      loadingTime: 1000,
      leaveShells: 0,
      leaveShellDelay: 1,
      fireCone: 5,
      laserSight: false,
      laserBeam: false,
      launchSound: 29,
      playReloadSound: false,
      name: 'WERFER ARMATE',
    },
    {
      parts: 4,
      bulletType: 31,
      bulletSpeed: 1.7000000476837158,
      bulletSpeedInherit: 0,
      distribution: 0.2288818359375,
      recoil: 0.5,
      ammo: 1,
      delay: 0,
      loadingTime: 120,
      leaveShells: 0,
      leaveShellDelay: 1,
      fireCone: 0,
      laserSight: false,
      laserBeam: false,
      launchSound: 12,
      playReloadSound: true,
      name: 'DERINGER',
    },
    {
      parts: 6,
      bulletType: 32,
      bulletSpeed: 2.0999999046325684,
      bulletSpeedInherit: 0.4761905074119568,
      distribution: 0.244140625,
      recoil: 0,
      ammo: 70,
      delay: 3,
      loadingTime: 640,
      leaveShells: 0,
      leaveShellDelay: 1,
      fireCone: 0,
      laserSight: false,
      laserBeam: false,
      launchSound: -1,
      playReloadSound: true,
      name: 'FLAMETHROWER',
    },
    {
      parts: 40,
      bulletType: 33,
      bulletSpeed: 1.7000000476837158,
      bulletSpeedInherit: 0.5882352590560913,
      distribution: 0.48828125,
      recoil: 0.699999988079071,
      ammo: 1,
      delay: 0,
      loadingTime: 250,
      leaveShells: 0,
      leaveShellDelay: 1,
      fireCone: 10,
      laserSight: false,
      laserBeam: false,
      launchSound: 0,
      playReloadSound: false,
      name: 'REMINGTON870',
    },
    {
      parts: 1,
      bulletType: 34,
      bulletSpeed: 1.7000000476837158,
      bulletSpeedInherit: 0.5882352590560913,
      distribution: 0.0457763671875,
      recoil: 0.20000000298023224,
      ammo: 1,
      delay: 0,
      loadingTime: 1000,
      leaveShells: 0,
      leaveShellDelay: 1,
      fireCone: 0,
      laserSight: false,
      laserBeam: false,
      launchSound: 5,
      playReloadSound: false,
      name: 'MOLOTOV COCKTAIL',
    },
    {
      parts: 1,
      bulletType: 35,
      bulletSpeed: 1.899999976158142,
      bulletSpeedInherit: 0.5263158082962036,
      distribution: 0.030517578125,
      recoil: 0.15000000596046448,
      ammo: 20,
      delay: 10,
      loadingTime: 350,
      leaveShells: 0,
      leaveShellDelay: 1,
      fireCone: 9,
      laserSight: false,
      laserBeam: false,
      launchSound: 23,
      playReloadSound: false,
      name: 'M16 CARABINE',
    },
    {
      parts: 1,
      bulletType: 36,
      bulletSpeed: 1.75,
      bulletSpeedInherit: 0.5714285969734192,
      distribution: 0.244140625,
      recoil: 0.14000000059604645,
      ammo: 25,
      delay: 12,
      loadingTime: 450,
      leaveShells: 0,
      leaveShellDelay: 1,
      fireCone: 0,
      laserSight: false,
      laserBeam: false,
      launchSound: 7,
      playReloadSound: true,
      name: 'GALIL',
    },
    {
      parts: 1,
      bulletType: 37,
      bulletSpeed: 1.899999976158142,
      bulletSpeedInherit: 0.5263158082962036,
      distribution: 0.152587890625,
      recoil: 0.20999999344348907,
      ammo: 50,
      delay: 17,
      loadingTime: 700,
      leaveShells: 0,
      leaveShellDelay: 1,
      fireCone: 6,
      laserSight: false,
      laserBeam: false,
      launchSound: 1,
      playReloadSound: false,
      name: 'PARA95',
    },
    {
      parts: 1,
      bulletType: 38,
      bulletSpeed: 1.7000000476837158,
      bulletSpeedInherit: 0,
      distribution: 0.06866455078125,
      recoil: 0.6000000238418579,
      ammo: 7,
      delay: 38,
      loadingTime: 420,
      leaveShells: 0,
      leaveShellDelay: 1,
      fireCone: 0,
      laserSight: false,
      laserBeam: false,
      launchSound: 25,
      playReloadSound: true,
      name: 'DESERT EAGLE',
    },
    {
      parts: 9,
      bulletType: 39,
      bulletSpeed: 1.7999999523162842,
      bulletSpeedInherit: 0.5555555820465088,
      distribution: 0.1190185546875,
      recoil: 0.03999999910593033,
      ammo: 6,
      delay: 30,
      loadingTime: 900,
      leaveShells: 0,
      leaveShellDelay: 1,
      fireCone: 9,
      laserSight: false,
      laserBeam: false,
      launchSound: 1,
      playReloadSound: true,
      name: 'M2HB',
    },
  ],
  wObjects: [
    {
      detectDistance: 2,
      blowAway: 0.07999999821186066,
      gravity: 0.02288818359375,
      exploSound: 13,
      addSpeed: 0,
      distribution: 0.1068115234375,
      multSpeed: 1,
      createOnExp: -1,
      dirtEffect: -1,
      wormExplode: false,
      explGround: false,
      wormCollide: false,
      collideWithObjects: false,
      affectByExplosions: true,
      bounce: 0.33000001311302185,
      bounceFriction: 0.800000011920929,
      timeToExplo: 200,
      timeToExploV: 30,
      hitDamage: 0,
      bloodOnHit: 1,
      startFrame: 206,
      numFrames: 3,
      loopAnim: true,
      shotType: 0,
      repeat: 1,
      colorBullets: 0,
      splinterAmount: 255,
      splinterColour: 0,
      splinterType: 4,
      splinterScatter: 0,
      objTrailType: -1,
      objTrailDelay: 0,
      partTrailType: 0,
      partTrailObj: -1,
      partTrailDelay: 0,
      speed: 180,
    },
    {
      detectDistance: 2,
      blowAway: 0,
      gravity: 0.00030517578125,
      exploSound: 4,
      addSpeed: 0,
      distribution: 0.00762939453125,
      multSpeed: 1,
      createOnExp: 0,
      dirtEffect: -1,
      wormExplode: true,
      explGround: true,
      wormCollide: true,
      collideWithObjects: true,
      affectByExplosions: true,
      bounce: 0,
      bounceFriction: 0.800000011920929,
      timeToExplo: 0,
      timeToExploV: 0,
      hitDamage: 1,
      bloodOnHit: 125,
      startFrame: 112,
      numFrames: 0,
      loopAnim: false,
      shotType: 3,
      repeat: 1,
      colorBullets: 0,
      splinterAmount: 11,
      splinterColour: 0,
      splinterType: 3,
      splinterScatter: 0,
      objTrailType: 3,
      objTrailDelay: 2,
      partTrailType: 0,
      partTrailObj: -1,
      partTrailDelay: 0,
      speed: 450,
    },
    {
      detectDistance: 0,
      blowAway: 0,
      gravity: 0,
      exploSound: -1,
      addSpeed: 0,
      distribution: 0.152587890625,
      multSpeed: 1,
      createOnExp: -1,
      dirtEffect: -1,
      wormExplode: true,
      explGround: true,
      wormCollide: true,
      collideWithObjects: false,
      affectByExplosions: false,
      bounce: 0,
      bounceFriction: 0.800000011920929,
      timeToExplo: 2,
      timeToExploV: 0,
      hitDamage: 0,
      bloodOnHit: 0,
      startFrame: -1,
      numFrames: 0,
      loopAnim: false,
      shotType: 0,
      repeat: 1,
      colorBullets: 75,
      splinterAmount: 1,
      splinterColour: 0,
      splinterType: 18,
      splinterScatter: 1,
      objTrailType: -1,
      objTrailDelay: 0,
      partTrailType: 0,
      partTrailObj: -1,
      partTrailDelay: 0,
      speed: 21,
    },
    {
      detectDistance: 2,
      blowAway: 0.05000000074505806,
      gravity: 0.001068115234375,
      exploSound: -1,
      addSpeed: 0,
      distribution: 0.457763671875,
      multSpeed: 1,
      createOnExp: 7,
      dirtEffect: -1,
      wormExplode: false,
      explGround: true,
      wormCollide: true,
      collideWithObjects: false,
      affectByExplosions: false,
      bounce: 0,
      bounceFriction: 0.800000011920929,
      timeToExplo: 0,
      timeToExploV: 0,
      hitDamage: 7,
      bloodOnHit: 4,
      startFrame: -1,
      numFrames: 0,
      loopAnim: false,
      shotType: 4,
      repeat: 8,
      colorBullets: 68,
      splinterAmount: 1,
      splinterColour: 0,
      splinterType: 14,
      splinterScatter: 0,
      objTrailType: 6,
      objTrailDelay: 4,
      partTrailType: 0,
      partTrailObj: -1,
      partTrailDelay: 0,
      speed: 150,
    },
    {
      detectDistance: 0,
      blowAway: 0,
      gravity: 0,
      exploSound: -1,
      addSpeed: 0,
      distribution: 0.4999847412109375,
      multSpeed: 0.6000000238418579,
      createOnExp: -1,
      dirtEffect: -1,
      wormExplode: true,
      explGround: true,
      wormCollide: false,
      collideWithObjects: false,
      affectByExplosions: true,
      bounce: 0.6499999761581421,
      bounceFriction: 0.800000011920929,
      timeToExplo: 400,
      timeToExploV: 0,
      hitDamage: 0,
      bloodOnHit: 0,
      startFrame: 197,
      numFrames: 0,
      loopAnim: false,
      shotType: 0,
      repeat: 1,
      colorBullets: 0,
      splinterAmount: 50,
      splinterColour: 0,
      splinterType: 13,
      splinterScatter: 0,
      objTrailType: -1,
      objTrailDelay: 1,
      partTrailType: 0,
      partTrailObj: 13,
      partTrailDelay: 1,
      speed: 700,
    },
    {
      detectDistance: 2,
      blowAway: 0.10000000149011612,
      gravity: 0,
      exploSound: -1,
      addSpeed: 0,
      distribution: 0.006103515625,
      multSpeed: 1,
      createOnExp: -1,
      dirtEffect: -1,
      wormExplode: false,
      explGround: true,
      wormCollide: false,
      collideWithObjects: false,
      affectByExplosions: false,
      bounce: 0,
      bounceFriction: 0.800000011920929,
      timeToExplo: 3,
      timeToExploV: 0,
      hitDamage: 58,
      bloodOnHit: 255,
      startFrame: 223,
      numFrames: 12,
      loopAnim: false,
      shotType: 3,
      repeat: 1,
      colorBullets: 0,
      splinterAmount: 0,
      splinterColour: 66,
      splinterType: -1,
      splinterScatter: 0,
      objTrailType: -1,
      objTrailDelay: 0,
      partTrailType: 0,
      partTrailObj: -1,
      partTrailDelay: 0,
      speed: 48,
    },
    {
      detectDistance: 2,
      blowAway: 0.15000000596046448,
      gravity: 0.000152587890625,
      exploSound: -1,
      addSpeed: 0,
      distribution: 0,
      multSpeed: 1.0199999809265137,
      createOnExp: 0,
      dirtEffect: -1,
      wormExplode: true,
      explGround: true,
      wormCollide: true,
      collideWithObjects: false,
      affectByExplosions: false,
      bounce: 0,
      bounceFriction: 0.800000011920929,
      timeToExplo: 0,
      timeToExploV: 0,
      hitDamage: 5,
      bloodOnHit: 100,
      startFrame: 127,
      numFrames: 0,
      loopAnim: false,
      shotType: 3,
      repeat: 1,
      colorBullets: 0,
      splinterAmount: 6,
      splinterColour: 0,
      splinterType: 17,
      splinterScatter: 0,
      objTrailType: 10,
      objTrailDelay: 2,
      partTrailType: 0,
      partTrailObj: -1,
      partTrailDelay: 0,
      speed: 110,
    },
    {
      detectDistance: 2,
      blowAway: 0.07999999821186066,
      gravity: 0.0213623046875,
      exploSound: 29,
      addSpeed: 0,
      distribution: 0.1068115234375,
      multSpeed: 1,
      createOnExp: 0,
      dirtEffect: -1,
      wormExplode: false,
      explGround: false,
      wormCollide: false,
      collideWithObjects: false,
      affectByExplosions: true,
      bounce: 0.33000001311302185,
      bounceFriction: 0.800000011920929,
      timeToExplo: 210,
      timeToExploV: 30,
      hitDamage: 0,
      bloodOnHit: 0,
      startFrame: 206,
      numFrames: 3,
      loopAnim: false,
      shotType: 0,
      repeat: 1,
      colorBullets: 0,
      splinterAmount: 150,
      splinterColour: 120,
      splinterType: 15,
      splinterScatter: 0,
      objTrailType: -1,
      objTrailDelay: 0,
      partTrailType: 0,
      partTrailObj: -1,
      partTrailDelay: 0,
      speed: 190,
    },
    {
      detectDistance: 2,
      blowAway: 0.07999999821186066,
      gravity: 0.025177001953125,
      exploSound: -1,
      addSpeed: 0,
      distribution: 0.1068115234375,
      multSpeed: 1,
      createOnExp: 0,
      dirtEffect: -1,
      wormExplode: false,
      explGround: false,
      wormCollide: false,
      collideWithObjects: false,
      affectByExplosions: true,
      bounce: 0.30000001192092896,
      bounceFriction: 0.800000011920929,
      timeToExplo: 200,
      timeToExploV: 30,
      hitDamage: 0,
      bloodOnHit: 1,
      startFrame: 206,
      numFrames: 3,
      loopAnim: true,
      shotType: 0,
      repeat: 1,
      colorBullets: 0,
      splinterAmount: 90,
      splinterColour: 54,
      splinterType: 8,
      splinterScatter: 0,
      objTrailType: -1,
      objTrailDelay: 0,
      partTrailType: 0,
      partTrailObj: -1,
      partTrailDelay: 0,
      speed: 170,
    },
    {
      detectDistance: 2,
      blowAway: 0.019999999552965164,
      gravity: 0.00018310546875,
      exploSound: -1,
      addSpeed: 0,
      distribution: 0.2288818359375,
      multSpeed: 1,
      createOnExp: 7,
      dirtEffect: -1,
      wormExplode: false,
      explGround: true,
      wormCollide: true,
      collideWithObjects: false,
      affectByExplosions: false,
      bounce: 0,
      bounceFriction: 0.800000011920929,
      timeToExplo: 0,
      timeToExploV: 0,
      hitDamage: 19,
      bloodOnHit: 10,
      startFrame: -1,
      numFrames: 0,
      loopAnim: false,
      shotType: 4,
      repeat: 8,
      colorBullets: 233,
      splinterAmount: 1,
      splinterColour: 0,
      splinterType: 14,
      splinterScatter: 0,
      objTrailType: 9,
      objTrailDelay: 3,
      partTrailType: 0,
      partTrailObj: -1,
      partTrailDelay: 0,
      speed: 180,
    },
    {
      detectDistance: 2,
      blowAway: 0.5,
      gravity: 0.0030517578125,
      exploSound: -1,
      addSpeed: 0,
      distribution: 0.00762939453125,
      multSpeed: 1,
      createOnExp: -1,
      dirtEffect: -1,
      wormExplode: false,
      explGround: true,
      wormCollide: true,
      collideWithObjects: false,
      affectByExplosions: false,
      bounce: 0,
      bounceFriction: 0.800000011920929,
      timeToExplo: 500,
      timeToExploV: 1,
      hitDamage: 68,
      bloodOnHit: 100,
      startFrame: 140,
      numFrames: 0,
      loopAnim: false,
      shotType: 3,
      repeat: 1,
      colorBullets: 68,
      splinterAmount: 12,
      splinterColour: 0,
      splinterType: 14,
      splinterScatter: 0,
      objTrailType: -1,
      objTrailDelay: 0,
      partTrailType: 0,
      partTrailObj: -1,
      partTrailDelay: 0,
      speed: 450,
    },
    {
      detectDistance: 2,
      blowAway: 0.019999999552965164,
      gravity: 0.000213623046875,
      exploSound: -1,
      addSpeed: 0,
      distribution: 0.0762939453125,
      multSpeed: 1,
      createOnExp: 7,
      dirtEffect: -1,
      wormExplode: false,
      explGround: true,
      wormCollide: true,
      collideWithObjects: false,
      affectByExplosions: false,
      bounce: 0,
      bounceFriction: 0.800000011920929,
      timeToExplo: 0,
      timeToExploV: 0,
      hitDamage: 21,
      bloodOnHit: 8,
      startFrame: -1,
      numFrames: 0,
      loopAnim: false,
      shotType: 4,
      repeat: 8,
      colorBullets: 67,
      splinterAmount: 1,
      splinterColour: 0,
      splinterType: 14,
      splinterScatter: 0,
      objTrailType: 6,
      objTrailDelay: 4,
      partTrailType: 0,
      partTrailObj: -1,
      partTrailDelay: 0,
      speed: 160,
    },
    {
      detectDistance: 2,
      blowAway: 0.5,
      gravity: 0.0000152587890625,
      exploSound: -1,
      addSpeed: 0,
      distribution: 0.0457763671875,
      multSpeed: 1,
      createOnExp: 2,
      dirtEffect: -1,
      wormExplode: false,
      explGround: true,
      wormCollide: true,
      collideWithObjects: false,
      affectByExplosions: false,
      bounce: 0,
      bounceFriction: 0.800000011920929,
      timeToExplo: 0,
      timeToExploV: 0,
      hitDamage: 57,
      bloodOnHit: 80,
      startFrame: -1,
      numFrames: 0,
      loopAnim: false,
      shotType: 4,
      repeat: 8,
      colorBullets: 65,
      splinterAmount: 9,
      splinterColour: 0,
      splinterType: 14,
      splinterScatter: 1,
      objTrailType: 12,
      objTrailDelay: 1,
      partTrailType: 0,
      partTrailObj: -1,
      partTrailDelay: 0,
      speed: 190,
    },
    {
      detectDistance: 0,
      blowAway: 0,
      gravity: 0,
      exploSound: -1,
      addSpeed: 0,
      distribution: 0.1983642578125,
      multSpeed: 1,
      createOnExp: -1,
      dirtEffect: -1,
      wormExplode: false,
      explGround: true,
      wormCollide: true,
      collideWithObjects: false,
      affectByExplosions: false,
      bounce: 0,
      bounceFriction: 0.800000011920929,
      timeToExplo: 1,
      timeToExploV: 0,
      hitDamage: 0,
      bloodOnHit: 0,
      startFrame: -1,
      numFrames: 0,
      loopAnim: false,
      shotType: 0,
      repeat: 1,
      colorBullets: 75,
      splinterAmount: 1,
      splinterColour: 0,
      splinterType: 19,
      splinterScatter: 1,
      objTrailType: 6,
      objTrailDelay: 3,
      partTrailType: 0,
      partTrailObj: -1,
      partTrailDelay: 0,
      speed: 140,
    },
    {
      detectDistance: 12,
      blowAway: 0,
      gravity: 0,
      exploSound: -1,
      addSpeed: 0,
      distribution: 0.4999847412109375,
      multSpeed: 1,
      createOnExp: -1,
      dirtEffect: -1,
      wormExplode: false,
      explGround: true,
      wormCollide: true,
      collideWithObjects: false,
      affectByExplosions: false,
      bounce: 0,
      bounceFriction: 0.800000011920929,
      timeToExplo: 3,
      timeToExploV: 3,
      hitDamage: 1,
      bloodOnHit: 1,
      startFrame: -1,
      numFrames: 0,
      loopAnim: false,
      shotType: 0,
      repeat: 1,
      colorBullets: 0,
      splinterAmount: 0,
      splinterColour: 0,
      splinterType: -1,
      splinterScatter: 1,
      objTrailType: -1,
      objTrailDelay: 0,
      partTrailType: 0,
      partTrailObj: -1,
      partTrailDelay: 0,
      speed: 3400,
    },
    {
      detectDistance: 2,
      blowAway: 0.019999999552965164,
      gravity: 0.00030517578125,
      exploSound: 23,
      addSpeed: 0,
      distribution: 0.11444091796875,
      multSpeed: 1,
      createOnExp: 7,
      dirtEffect: -1,
      wormExplode: false,
      explGround: true,
      wormCollide: true,
      collideWithObjects: false,
      affectByExplosions: false,
      bounce: 0,
      bounceFriction: 0.800000011920929,
      timeToExplo: 0,
      timeToExploV: 0,
      hitDamage: 13,
      bloodOnHit: 8,
      startFrame: -1,
      numFrames: 0,
      loopAnim: false,
      shotType: 4,
      repeat: 8,
      colorBullets: 68,
      splinterAmount: 1,
      splinterColour: 0,
      splinterType: 14,
      splinterScatter: 0,
      objTrailType: 12,
      objTrailDelay: 5,
      partTrailType: 0,
      partTrailObj: -1,
      partTrailDelay: 0,
      speed: 160,
    },
    {
      detectDistance: 2,
      blowAway: 0.009999999776482582,
      gravity: 0.0000762939453125,
      exploSound: -1,
      addSpeed: 0,
      distribution: 0.152587890625,
      multSpeed: 1,
      createOnExp: 7,
      dirtEffect: -1,
      wormExplode: false,
      explGround: true,
      wormCollide: true,
      collideWithObjects: false,
      affectByExplosions: false,
      bounce: 0,
      bounceFriction: 0.800000011920929,
      timeToExplo: 0,
      timeToExploV: 0,
      hitDamage: 30,
      bloodOnHit: 10,
      startFrame: -1,
      numFrames: 0,
      loopAnim: false,
      shotType: 4,
      repeat: 8,
      colorBullets: 186,
      splinterAmount: 1,
      splinterColour: 0,
      splinterType: 14,
      splinterScatter: 0,
      objTrailType: 11,
      objTrailDelay: 3,
      partTrailType: 0,
      partTrailObj: -1,
      partTrailDelay: 0,
      speed: 180,
    },
    {
      detectDistance: 2,
      blowAway: 0,
      gravity: 0.0213623046875,
      exploSound: 1,
      addSpeed: 0,
      distribution: 0.0762939453125,
      multSpeed: 1,
      createOnExp: 0,
      dirtEffect: -1,
      wormExplode: true,
      explGround: false,
      wormCollide: false,
      collideWithObjects: true,
      affectByExplosions: true,
      bounce: 0,
      bounceFriction: 0.800000011920929,
      timeToExplo: 32767,
      timeToExploV: 10000,
      hitDamage: 9,
      bloodOnHit: 10,
      startFrame: 126,
      numFrames: 0,
      loopAnim: false,
      shotType: 0,
      repeat: 1,
      colorBullets: 0,
      splinterAmount: 3,
      splinterColour: 54,
      splinterType: 3,
      splinterScatter: 0,
      objTrailType: -1,
      objTrailDelay: 1,
      partTrailType: 0,
      partTrailObj: -1,
      partTrailDelay: 0,
      speed: 100,
    },
    {
      detectDistance: 0,
      blowAway: 0,
      gravity: 0.03662109375,
      exploSound: 11,
      addSpeed: 0,
      distribution: 0.003814697265625,
      multSpeed: 1,
      createOnExp: 0,
      dirtEffect: -1,
      wormExplode: false,
      explGround: true,
      wormCollide: false,
      collideWithObjects: true,
      affectByExplosions: true,
      bounce: 0,
      bounceFriction: 0.800000011920929,
      timeToExplo: 0,
      timeToExploV: 0,
      hitDamage: 0,
      bloodOnHit: 50,
      startFrame: 193,
      numFrames: 0,
      loopAnim: false,
      shotType: 0,
      repeat: 1,
      colorBullets: 0,
      splinterAmount: 12,
      splinterColour: 68,
      splinterType: 17,
      splinterScatter: 0,
      objTrailType: -1,
      objTrailDelay: 0,
      partTrailType: 0,
      partTrailObj: -1,
      partTrailDelay: 0,
      speed: 220,
    },
    {
      detectDistance: 2,
      blowAway: 0.05000000074505806,
      gravity: 0.000152587890625,
      exploSound: 1,
      addSpeed: 0,
      distribution: 0.12969970703125,
      multSpeed: 1.0099999904632568,
      createOnExp: 1,
      dirtEffect: -1,
      wormExplode: true,
      explGround: true,
      wormCollide: true,
      collideWithObjects: false,
      affectByExplosions: false,
      bounce: 0,
      bounceFriction: 0.800000011920929,
      timeToExplo: 0,
      timeToExploV: 0,
      hitDamage: 3,
      bloodOnHit: 200,
      startFrame: 127,
      numFrames: 0,
      loopAnim: false,
      shotType: 3,
      repeat: 1,
      colorBullets: 0,
      splinterAmount: 1,
      splinterColour: 0,
      splinterType: 17,
      splinterScatter: 1,
      objTrailType: 10,
      objTrailDelay: 3,
      partTrailType: 0,
      partTrailObj: -1,
      partTrailDelay: 0,
      speed: 220,
    },
    {
      detectDistance: 0,
      blowAway: 0,
      gravity: 0.05340576171875,
      exploSound: -1,
      addSpeed: 0,
      distribution: 0.0152587890625,
      multSpeed: 1,
      createOnExp: -1,
      dirtEffect: -1,
      wormExplode: false,
      explGround: false,
      wormCollide: false,
      collideWithObjects: false,
      affectByExplosions: true,
      bounce: 0,
      bounceFriction: 0.800000011920929,
      timeToExplo: 1,
      timeToExploV: 0,
      hitDamage: 0,
      bloodOnHit: 0,
      startFrame: 211,
      numFrames: 0,
      loopAnim: false,
      shotType: 0,
      repeat: 1,
      colorBullets: 244,
      splinterAmount: 0,
      splinterColour: 0,
      splinterType: -1,
      splinterScatter: 0,
      objTrailType: 6,
      objTrailDelay: 1,
      partTrailType: 1,
      partTrailObj: -1,
      partTrailDelay: 4,
      speed: 300,
    },
    {
      detectDistance: 2,
      blowAway: 0.05000000074505806,
      gravity: 0.000152587890625,
      exploSound: 1,
      addSpeed: 0,
      distribution: 0.3662109375,
      multSpeed: 1,
      createOnExp: 7,
      dirtEffect: -1,
      wormExplode: false,
      explGround: true,
      wormCollide: true,
      collideWithObjects: true,
      affectByExplosions: false,
      bounce: 0,
      bounceFriction: 0.800000011920929,
      timeToExplo: 0,
      timeToExploV: 0,
      hitDamage: 7,
      bloodOnHit: 4,
      startFrame: -1,
      numFrames: 0,
      loopAnim: false,
      shotType: 4,
      repeat: 8,
      colorBullets: 103,
      splinterAmount: 1,
      splinterColour: 0,
      splinterType: 14,
      splinterScatter: 0,
      objTrailType: 12,
      objTrailDelay: 6,
      partTrailType: 0,
      partTrailObj: -1,
      partTrailDelay: 0,
      speed: 185,
    },
    {
      detectDistance: 2,
      blowAway: 0,
      gravity: 0.018310546875,
      exploSound: 11,
      addSpeed: 0,
      distribution: 0.003814697265625,
      multSpeed: 1,
      createOnExp: 0,
      dirtEffect: -1,
      wormExplode: true,
      explGround: true,
      wormCollide: true,
      collideWithObjects: true,
      affectByExplosions: true,
      bounce: 0,
      bounceFriction: 0.800000011920929,
      timeToExplo: 0,
      timeToExploV: 0,
      hitDamage: 0,
      bloodOnHit: 100,
      startFrame: 215,
      numFrames: 3,
      loopAnim: true,
      shotType: 0,
      repeat: 1,
      colorBullets: 0,
      splinterAmount: 3,
      splinterColour: 19,
      splinterType: 8,
      splinterScatter: 0,
      objTrailType: -1,
      objTrailDelay: 0,
      partTrailType: 0,
      partTrailObj: -1,
      partTrailDelay: 0,
      speed: 400,
    },
    {
      detectDistance: 2,
      blowAway: 0.03999999910593033,
      gravity: 0.0005645751953125,
      exploSound: -1,
      addSpeed: 0,
      distribution: 0.3662109375,
      multSpeed: 1,
      createOnExp: 7,
      dirtEffect: -1,
      wormExplode: false,
      explGround: true,
      wormCollide: true,
      collideWithObjects: false,
      affectByExplosions: false,
      bounce: 0,
      bounceFriction: 0.800000011920929,
      timeToExplo: 0,
      timeToExploV: 0,
      hitDamage: 11,
      bloodOnHit: 5,
      startFrame: -1,
      numFrames: 0,
      loopAnim: false,
      shotType: 4,
      repeat: 8,
      colorBullets: 75,
      splinterAmount: 1,
      splinterColour: 0,
      splinterType: 14,
      splinterScatter: 0,
      objTrailType: 10,
      objTrailDelay: 3,
      partTrailType: 0,
      partTrailObj: -1,
      partTrailDelay: 0,
      speed: 170,
    },
    {
      detectDistance: 0,
      blowAway: 0,
      gravity: 0,
      exploSound: 9,
      addSpeed: 0,
      distribution: 0,
      multSpeed: 1.0299999713897705,
      createOnExp: -1,
      dirtEffect: -1,
      wormExplode: false,
      explGround: true,
      wormCollide: false,
      collideWithObjects: false,
      affectByExplosions: false,
      bounce: 0,
      bounceFriction: 0.800000011920929,
      timeToExplo: 45,
      timeToExploV: 0,
      hitDamage: 3,
      bloodOnHit: 0,
      startFrame: 193,
      numFrames: 0,
      loopAnim: false,
      shotType: 0,
      repeat: 1,
      colorBullets: 0,
      splinterAmount: 9,
      splinterColour: 75,
      splinterType: 10,
      splinterScatter: 1,
      objTrailType: 3,
      objTrailDelay: 8,
      partTrailType: 1,
      partTrailObj: -1,
      partTrailDelay: 0,
      speed: 40,
    },
    {
      detectDistance: 2,
      blowAway: 0.009999999776482582,
      gravity: 0.0518798828125,
      exploSound: 3,
      addSpeed: 0,
      distribution: 0.48828125,
      multSpeed: 1,
      createOnExp: 2,
      dirtEffect: -1,
      wormExplode: true,
      explGround: true,
      wormCollide: true,
      collideWithObjects: false,
      affectByExplosions: true,
      bounce: 0,
      bounceFriction: 0.800000011920929,
      timeToExplo: 0,
      timeToExploV: 0,
      hitDamage: 1,
      bloodOnHit: 50,
      startFrame: 185,
      numFrames: 7,
      loopAnim: true,
      shotType: 0,
      repeat: 1,
      colorBullets: 65,
      splinterAmount: 2,
      splinterColour: 0,
      splinterType: 12,
      splinterScatter: 0,
      objTrailType: -1,
      objTrailDelay: 1,
      partTrailType: 0,
      partTrailObj: 3,
      partTrailDelay: 30,
      speed: 335,
    },
    {
      detectDistance: 2,
      blowAway: 1.5,
      gravity: 0.0000152587890625,
      exploSound: 3,
      addSpeed: 0,
      distribution: 0.00762939453125,
      multSpeed: 1,
      createOnExp: 2,
      dirtEffect: 1,
      wormExplode: false,
      explGround: true,
      wormCollide: true,
      collideWithObjects: false,
      affectByExplosions: false,
      bounce: 0,
      bounceFriction: 0.800000011920929,
      timeToExplo: 0,
      timeToExploV: 0,
      hitDamage: 70,
      bloodOnHit: 150,
      startFrame: -1,
      numFrames: 0,
      loopAnim: false,
      shotType: 4,
      repeat: 8,
      colorBullets: 75,
      splinterAmount: 15,
      splinterColour: 0,
      splinterType: 3,
      splinterScatter: 1,
      objTrailType: 10,
      objTrailDelay: 2,
      partTrailType: 0,
      partTrailObj: -1,
      partTrailDelay: 0,
      speed: 170,
    },
    {
      detectDistance: 0,
      blowAway: 0,
      gravity: 0.0244140625,
      exploSound: 11,
      addSpeed: 0,
      distribution: 0.152587890625,
      multSpeed: 1,
      createOnExp: 0,
      dirtEffect: -1,
      wormExplode: false,
      explGround: false,
      wormCollide: false,
      collideWithObjects: false,
      affectByExplosions: true,
      bounce: 0.2199999988079071,
      bounceFriction: 0.800000011920929,
      timeToExplo: 260,
      timeToExploV: 100,
      hitDamage: 0,
      bloodOnHit: 0,
      startFrame: 198,
      numFrames: 3,
      loopAnim: true,
      shotType: 0,
      repeat: 1,
      colorBullets: 0,
      splinterAmount: 250,
      splinterColour: 0,
      splinterType: 9,
      splinterScatter: 0,
      objTrailType: 6,
      objTrailDelay: 8,
      partTrailType: 0,
      partTrailObj: -1,
      partTrailDelay: 0,
      speed: 150,
    },
    {
      detectDistance: 2,
      blowAway: 0,
      gravity: 0.000762939453125,
      exploSound: -1,
      addSpeed: 210,
      distribution: 0.030517578125,
      multSpeed: 1,
      createOnExp: 0,
      dirtEffect: 0,
      wormExplode: true,
      explGround: true,
      wormCollide: true,
      collideWithObjects: false,
      affectByExplosions: false,
      bounce: 0,
      bounceFriction: 0.800000011920929,
      timeToExplo: 0,
      timeToExploV: 0,
      hitDamage: 255,
      bloodOnHit: 0,
      startFrame: 110,
      numFrames: 0,
      loopAnim: false,
      shotType: 2,
      repeat: 1,
      colorBullets: 0,
      splinterAmount: 250,
      splinterColour: 0,
      splinterType: 11,
      splinterScatter: 0,
      objTrailType: 3,
      objTrailDelay: 3,
      partTrailType: 0,
      partTrailObj: -1,
      partTrailDelay: 0,
      speed: 70,
    },
    {
      detectDistance: 2,
      blowAway: 0.699999988079071,
      gravity: 0.0000762939453125,
      exploSound: -1,
      addSpeed: 0,
      distribution: 0.030517578125,
      multSpeed: 1,
      createOnExp: 2,
      dirtEffect: -1,
      wormExplode: false,
      explGround: true,
      wormCollide: true,
      collideWithObjects: false,
      affectByExplosions: false,
      bounce: 0,
      bounceFriction: 0.800000011920929,
      timeToExplo: 0,
      timeToExploV: 0,
      hitDamage: 70,
      bloodOnHit: 100,
      startFrame: -1,
      numFrames: 0,
      loopAnim: true,
      shotType: 4,
      repeat: 8,
      colorBullets: 68,
      splinterAmount: 11,
      splinterColour: 0,
      splinterType: 14,
      splinterScatter: 1,
      objTrailType: 10,
      objTrailDelay: 2,
      partTrailType: 0,
      partTrailObj: -1,
      partTrailDelay: 0,
      speed: 190,
    },
    {
      detectDistance: 2,
      blowAway: 0.20000000298023224,
      gravity: 0.02288818359375,
      exploSound: 11,
      addSpeed: 0,
      distribution: 0.06103515625,
      multSpeed: 1,
      createOnExp: 0,
      dirtEffect: 0,
      wormExplode: true,
      explGround: true,
      wormCollide: true,
      collideWithObjects: false,
      affectByExplosions: true,
      bounce: 0,
      bounceFriction: 0.800000011920929,
      timeToExplo: 0,
      timeToExploV: 0,
      hitDamage: 3,
      bloodOnHit: 10,
      startFrame: 194,
      numFrames: 0,
      loopAnim: false,
      shotType: 0,
      repeat: 1,
      colorBullets: 0,
      splinterAmount: 2,
      splinterColour: 0,
      splinterType: 8,
      splinterScatter: 0,
      objTrailType: 3,
      objTrailDelay: 8,
      partTrailType: 0,
      partTrailObj: -1,
      partTrailDelay: 0,
      speed: 270,
    },
    {
      detectDistance: 2,
      blowAway: 0.20000000298023224,
      gravity: 0.0002288818359375,
      exploSound: -1,
      addSpeed: 0,
      distribution: 0.2288818359375,
      multSpeed: 1,
      createOnExp: 7,
      dirtEffect: -1,
      wormExplode: false,
      explGround: true,
      wormCollide: true,
      collideWithObjects: false,
      affectByExplosions: true,
      bounce: 0,
      bounceFriction: 0.800000011920929,
      timeToExplo: 0,
      timeToExploV: 0,
      hitDamage: 16,
      bloodOnHit: 20,
      startFrame: -1,
      numFrames: 3,
      loopAnim: true,
      shotType: 4,
      repeat: 8,
      colorBullets: 65,
      splinterAmount: 9,
      splinterColour: 0,
      splinterType: 14,
      splinterScatter: 0,
      objTrailType: 12,
      objTrailDelay: 4,
      partTrailType: 0,
      partTrailObj: -1,
      partTrailDelay: 0,
      speed: 170,
    },
    {
      detectDistance: 2,
      blowAway: 0,
      gravity: 0.0050811767578125,
      exploSound: -1,
      addSpeed: 0,
      distribution: 0.244140625,
      multSpeed: 1,
      createOnExp: -1,
      dirtEffect: 5,
      wormExplode: true,
      explGround: true,
      wormCollide: true,
      collideWithObjects: false,
      affectByExplosions: false,
      bounce: 0,
      bounceFriction: 0.800000011920929,
      timeToExplo: 23,
      timeToExploV: 5,
      hitDamage: 2,
      bloodOnHit: 8,
      startFrame: 159,
      numFrames: 5,
      loopAnim: false,
      shotType: 0,
      repeat: 1,
      colorBullets: 0,
      splinterAmount: 0,
      splinterColour: 0,
      splinterType: -1,
      splinterScatter: 0,
      objTrailType: -1,
      objTrailDelay: 0,
      partTrailType: 0,
      partTrailObj: -1,
      partTrailDelay: 0,
      speed: 210,
    },
    {
      detectDistance: 2,
      blowAway: 0.10999999940395355,
      gravity: 0.00030517578125,
      exploSound: -1,
      addSpeed: 0,
      distribution: 0.48828125,
      multSpeed: 1,
      createOnExp: 7,
      dirtEffect: -1,
      wormExplode: false,
      explGround: true,
      wormCollide: true,
      collideWithObjects: false,
      affectByExplosions: false,
      bounce: 0,
      bounceFriction: 0.800000011920929,
      timeToExplo: 0,
      timeToExploV: 0,
      hitDamage: 2,
      bloodOnHit: 2,
      startFrame: -1,
      numFrames: 0,
      loopAnim: false,
      shotType: 4,
      repeat: 8,
      colorBullets: 65,
      splinterAmount: 1,
      splinterColour: 0,
      splinterType: 14,
      splinterScatter: 0,
      objTrailType: 12,
      objTrailDelay: 4,
      partTrailType: 0,
      partTrailObj: -1,
      partTrailDelay: 0,
      speed: 170,
    },
    {
      detectDistance: 0,
      blowAway: 0,
      gravity: 0.02288818359375,
      exploSound: 14,
      addSpeed: 0,
      distribution: 0.0457763671875,
      multSpeed: 1,
      createOnExp: 2,
      dirtEffect: -1,
      wormExplode: false,
      explGround: true,
      wormCollide: false,
      collideWithObjects: false,
      affectByExplosions: false,
      bounce: 0,
      bounceFriction: 0.800000011920929,
      timeToExplo: 0,
      timeToExploV: 0,
      hitDamage: 0,
      bloodOnHit: 70,
      startFrame: 185,
      numFrames: 7,
      loopAnim: false,
      shotType: 0,
      repeat: 1,
      colorBullets: 0,
      splinterAmount: 25,
      splinterColour: 0,
      splinterType: 16,
      splinterScatter: 0,
      objTrailType: -1,
      objTrailDelay: 0,
      partTrailType: 0,
      partTrailObj: 12,
      partTrailDelay: 40,
      speed: 170,
    },
    {
      detectDistance: 2,
      blowAway: 0.03999999910593033,
      gravity: 0.00018310546875,
      exploSound: -1,
      addSpeed: 0,
      distribution: 0.030517578125,
      multSpeed: 1,
      createOnExp: 7,
      dirtEffect: -1,
      wormExplode: false,
      explGround: true,
      wormCollide: true,
      collideWithObjects: false,
      affectByExplosions: false,
      bounce: 0,
      bounceFriction: 0.800000011920929,
      timeToExplo: 0,
      timeToExploV: 0,
      hitDamage: 22,
      bloodOnHit: 10,
      startFrame: -1,
      numFrames: 0,
      loopAnim: true,
      shotType: 4,
      repeat: 8,
      colorBullets: 68,
      splinterAmount: 1,
      splinterColour: 0,
      splinterType: 14,
      splinterScatter: 0,
      objTrailType: 6,
      objTrailDelay: 3,
      partTrailType: 0,
      partTrailObj: -1,
      partTrailDelay: 0,
      speed: 190,
    },
    {
      detectDistance: 2,
      blowAway: 0.019999999552965164,
      gravity: 0.0001678466796875,
      exploSound: -1,
      addSpeed: 0,
      distribution: 0.244140625,
      multSpeed: 1,
      createOnExp: 7,
      dirtEffect: -1,
      wormExplode: false,
      explGround: true,
      wormCollide: true,
      collideWithObjects: false,
      affectByExplosions: false,
      bounce: 0,
      bounceFriction: 0.800000011920929,
      timeToExplo: 0,
      timeToExploV: 0,
      hitDamage: 27,
      bloodOnHit: 10,
      startFrame: -1,
      numFrames: 0,
      loopAnim: false,
      shotType: 4,
      repeat: 8,
      colorBullets: 62,
      splinterAmount: 1,
      splinterColour: 0,
      splinterType: 14,
      splinterScatter: 0,
      objTrailType: 10,
      objTrailDelay: 3,
      partTrailType: 0,
      partTrailObj: -1,
      partTrailDelay: 0,
      speed: 175,
    },
    {
      detectDistance: 2,
      blowAway: 0.07000000029802322,
      gravity: 0.00018310546875,
      exploSound: -1,
      addSpeed: 0,
      distribution: 0.152587890625,
      multSpeed: 1,
      createOnExp: 7,
      dirtEffect: -1,
      wormExplode: false,
      explGround: true,
      wormCollide: true,
      collideWithObjects: false,
      affectByExplosions: false,
      bounce: 0,
      bounceFriction: 0.800000011920929,
      timeToExplo: 0,
      timeToExploV: 0,
      hitDamage: 39,
      bloodOnHit: 15,
      startFrame: -1,
      numFrames: 0,
      loopAnim: false,
      shotType: 4,
      repeat: 8,
      colorBullets: 68,
      splinterAmount: 1,
      splinterColour: 0,
      splinterType: 14,
      splinterScatter: 0,
      objTrailType: 12,
      objTrailDelay: 2,
      partTrailType: 0,
      partTrailObj: -1,
      partTrailDelay: 0,
      speed: 190,
    },
    {
      detectDistance: 2,
      blowAway: 0.15000000596046448,
      gravity: 0.0002288818359375,
      exploSound: -1,
      addSpeed: 0,
      distribution: 0.06866455078125,
      multSpeed: 1,
      createOnExp: 7,
      dirtEffect: -1,
      wormExplode: false,
      explGround: true,
      wormCollide: true,
      collideWithObjects: false,
      affectByExplosions: true,
      bounce: 0,
      bounceFriction: 0.800000011920929,
      timeToExplo: 0,
      timeToExploV: 0,
      hitDamage: 48,
      bloodOnHit: 20,
      startFrame: -1,
      numFrames: 3,
      loopAnim: true,
      shotType: 4,
      repeat: 8,
      colorBullets: 68,
      splinterAmount: 9,
      splinterColour: 0,
      splinterType: 14,
      splinterScatter: 0,
      objTrailType: 6,
      objTrailDelay: 3,
      partTrailType: 0,
      partTrailObj: -1,
      partTrailDelay: 0,
      speed: 170,
    },
    {
      detectDistance: 2,
      blowAway: 0.009999999776482582,
      gravity: 0.00018310546875,
      exploSound: -1,
      addSpeed: 0,
      distribution: 0.1190185546875,
      multSpeed: 1,
      createOnExp: 2,
      dirtEffect: -1,
      wormExplode: false,
      explGround: true,
      wormCollide: true,
      collideWithObjects: false,
      affectByExplosions: false,
      bounce: 0,
      bounceFriction: 0.800000011920929,
      timeToExplo: 0,
      timeToExploV: 0,
      hitDamage: 5,
      bloodOnHit: 4,
      startFrame: -1,
      numFrames: 0,
      loopAnim: false,
      shotType: 4,
      repeat: 8,
      colorBullets: 60,
      splinterAmount: 2,
      splinterColour: 0,
      splinterType: 14,
      splinterScatter: 0,
      objTrailType: 9,
      objTrailDelay: 2,
      partTrailType: 0,
      partTrailObj: -1,
      partTrailDelay: 0,
      speed: 180,
    },
  ],
  nObjects: [
    {
      detectDistance: 0,
      gravity: 0.01220703125,
      speed: 1.399999976158142,
      speedV: 0.4000000059604645,
      distribution: 0.152587890625,
      blowAway: 0,
      bounce: 0.10000000149011612,
      hitDamage: 0,
      wormExplode: false,
      explGround: true,
      wormDestroy: false,
      bloodOnHit: 0,
      startFrame: 165,
      numFrames: 3,
      drawOnMap: true,
      colorBullets: 0,
      createOnExp: -1,
      affectByExplosions: false,
      dirtEffect: -1,
      splinterAmount: 0,
      splinterColour: 0,
      splinterType: -1,
      bloodTrail: true,
      bloodTrailDelay: 4,
      leaveObj: -1,
      leaveObjDelay: 0,
      timeToExplo: 0,
      timeToExploV: 0,
    },
    {
      detectDistance: 0,
      gravity: 0.01220703125,
      speed: 1.399999976158142,
      speedV: 0.4000000059604645,
      distribution: 0.152587890625,
      blowAway: 0,
      bounce: 0.10000000149011612,
      hitDamage: 0,
      wormExplode: false,
      explGround: true,
      wormDestroy: false,
      bloodOnHit: 0,
      startFrame: 169,
      numFrames: 3,
      drawOnMap: true,
      colorBullets: 0,
      createOnExp: -1,
      affectByExplosions: false,
      dirtEffect: -1,
      splinterAmount: 0,
      splinterColour: 0,
      splinterType: -1,
      bloodTrail: true,
      bloodTrailDelay: 4,
      leaveObj: -1,
      leaveObjDelay: 0,
      timeToExplo: 0,
      timeToExploV: 0,
    },
    {
      detectDistance: 0,
      gravity: 0.01068115234375,
      speed: 0.800000011920929,
      speedV: 0.4000000059604645,
      distribution: 0.152587890625,
      blowAway: 0,
      bounce: 0,
      hitDamage: 0,
      wormExplode: false,
      explGround: true,
      wormDestroy: false,
      bloodOnHit: 0,
      startFrame: 0,
      numFrames: 0,
      drawOnMap: false,
      colorBullets: 17,
      createOnExp: -1,
      affectByExplosions: false,
      dirtEffect: -1,
      splinterAmount: 0,
      splinterColour: 0,
      splinterType: -1,
      bloodTrail: false,
      bloodTrailDelay: 0,
      leaveObj: -1,
      leaveObjDelay: 0,
      timeToExplo: 0,
      timeToExploV: 0,
    },
    {
      detectDistance: 2,
      gravity: 0.01068115234375,
      speed: 1.600000023841858,
      speedV: 1.399999976158142,
      distribution: 0.030517578125,
      blowAway: 0.10000000149011612,
      bounce: 0,
      hitDamage: 5,
      wormExplode: false,
      explGround: true,
      wormDestroy: true,
      bloodOnHit: 1,
      startFrame: 0,
      numFrames: 0,
      drawOnMap: false,
      colorBullets: 67,
      createOnExp: 2,
      affectByExplosions: false,
      dirtEffect: -1,
      splinterAmount: 1,
      splinterColour: 0,
      splinterType: 14,
      bloodTrail: false,
      bloodTrailDelay: 0,
      leaveObj: 6,
      leaveObjDelay: 2,
      timeToExplo: 0,
      timeToExploV: 0,
    },
    {
      detectDistance: 30,
      gravity: 0,
      speed: 11,
      speedV: 0,
      distribution: 0.4999847412109375,
      blowAway: 0.009999999776482582,
      bounce: 0,
      hitDamage: 2,
      wormExplode: false,
      explGround: true,
      wormDestroy: true,
      bloodOnHit: 5,
      startFrame: 0,
      numFrames: 0,
      drawOnMap: false,
      colorBullets: 13,
      createOnExp: -1,
      affectByExplosions: false,
      dirtEffect: -1,
      splinterAmount: 0,
      splinterColour: 0,
      splinterType: -1,
      bloodTrail: false,
      bloodTrailDelay: 0,
      leaveObj: -1,
      leaveObjDelay: 0,
      timeToExplo: 6,
      timeToExploV: 0,
    },
    {
      detectDistance: 3,
      gravity: 0.0152587890625,
      speed: 2.5,
      speedV: 2,
      distribution: 0.030517578125,
      blowAway: 0.15000000596046448,
      bounce: 0,
      hitDamage: 15,
      wormExplode: false,
      explGround: true,
      wormDestroy: true,
      bloodOnHit: 1,
      startFrame: 0,
      numFrames: 0,
      drawOnMap: false,
      colorBullets: 67,
      createOnExp: 2,
      affectByExplosions: false,
      dirtEffect: -1,
      splinterAmount: 1,
      splinterColour: 0,
      splinterType: 14,
      bloodTrail: false,
      bloodTrailDelay: 0,
      leaveObj: 6,
      leaveObjDelay: 1,
      timeToExplo: 0,
      timeToExploV: 0,
    },
    {
      detectDistance: 0,
      gravity: 0.01715087890625,
      speed: 0.44999998807907104,
      speedV: 0.44999998807907104,
      distribution: 0.4999847412109375,
      blowAway: 0.009999999776482582,
      bounce: 0.05000000074505806,
      hitDamage: 0,
      wormExplode: false,
      explGround: true,
      wormDestroy: false,
      bloodOnHit: 0,
      startFrame: 0,
      numFrames: 0,
      drawOnMap: false,
      colorBullets: 82,
      createOnExp: -1,
      affectByExplosions: false,
      dirtEffect: -1,
      splinterAmount: 0,
      splinterColour: 0,
      splinterType: -1,
      bloodTrail: true,
      bloodTrailDelay: 15,
      leaveObj: -1,
      leaveObjDelay: 0,
      timeToExplo: 45,
      timeToExploV: 45,
    },
    {
      detectDistance: 0,
      gravity: 0.0152587890625,
      speed: 0,
      speedV: 0,
      distribution: 0.1220703125,
      blowAway: 0,
      bounce: 0.4000000059604645,
      hitDamage: 0,
      wormExplode: false,
      explGround: true,
      wormDestroy: false,
      bloodOnHit: 0,
      startFrame: 155,
      numFrames: 3,
      drawOnMap: true,
      colorBullets: 0,
      createOnExp: -1,
      affectByExplosions: false,
      dirtEffect: -1,
      splinterAmount: 0,
      splinterColour: 0,
      splinterType: -1,
      bloodTrail: false,
      bloodTrailDelay: 0,
      leaveObj: -1,
      leaveObjDelay: 0,
      timeToExplo: 0,
      timeToExploV: 0,
    },
    {
      detectDistance: 3,
      gravity: 0.0213623046875,
      speed: 2.200000047683716,
      speedV: 1.5,
      distribution: 0.152587890625,
      blowAway: 0,
      bounce: 0,
      hitDamage: 21,
      wormExplode: true,
      explGround: true,
      wormDestroy: true,
      bloodOnHit: 15,
      startFrame: 202,
      numFrames: 3,
      drawOnMap: false,
      colorBullets: 0,
      createOnExp: 1,
      affectByExplosions: false,
      dirtEffect: -1,
      splinterAmount: 6,
      splinterColour: 0,
      splinterType: 14,
      bloodTrail: false,
      bloodTrailDelay: 0,
      leaveObj: -1,
      leaveObjDelay: 0,
      timeToExplo: 0,
      timeToExploV: 0,
    },
    {
      detectDistance: 0,
      gravity: 0,
      speed: 4.599999904632568,
      speedV: 1.2000000476837158,
      distribution: 0.30517578125,
      blowAway: 0,
      bounce: 0.5,
      hitDamage: 0,
      wormExplode: false,
      explGround: false,
      wormDestroy: false,
      bloodOnHit: 0,
      startFrame: 177,
      numFrames: 0,
      drawOnMap: false,
      colorBullets: 0,
      createOnExp: 5,
      affectByExplosions: true,
      dirtEffect: 1,
      splinterAmount: 5,
      splinterColour: 75,
      splinterType: 17,
      bloodTrail: false,
      bloodTrailDelay: 0,
      leaveObj: 5,
      leaveObjDelay: 5,
      timeToExplo: 20,
      timeToExploV: 0,
    },
    {
      detectDistance: 1,
      gravity: 0.0152587890625,
      speed: 1.399999976158142,
      speedV: 0.20000000298023224,
      distribution: 0.30517578125,
      blowAway: 0.15000000596046448,
      bounce: 0,
      hitDamage: 13,
      wormExplode: true,
      explGround: true,
      wormDestroy: true,
      bloodOnHit: 10,
      startFrame: 194,
      numFrames: 0,
      drawOnMap: false,
      colorBullets: 0,
      createOnExp: 0,
      affectByExplosions: false,
      dirtEffect: -1,
      splinterAmount: 20,
      splinterColour: 0,
      splinterType: 14,
      bloodTrail: false,
      bloodTrailDelay: 0,
      leaveObj: -1,
      leaveObjDelay: 0,
      timeToExplo: 0,
      timeToExploV: 0,
    },
    {
      detectDistance: 2,
      gravity: 0.0152587890625,
      speed: 30,
      speedV: 0,
      distribution: 0.4999847412109375,
      blowAway: 0,
      bounce: 0,
      hitDamage: 1,
      wormExplode: false,
      explGround: false,
      wormDestroy: false,
      bloodOnHit: 9,
      startFrame: 0,
      numFrames: 0,
      drawOnMap: false,
      colorBullets: 13,
      createOnExp: 0,
      affectByExplosions: true,
      dirtEffect: -1,
      splinterAmount: 255,
      splinterColour: 75,
      splinterType: 23,
      bloodTrail: false,
      bloodTrailDelay: 0,
      leaveObj: 5,
      leaveObjDelay: 5,
      timeToExplo: 450,
      timeToExploV: 100,
    },
    {
      detectDistance: 0,
      gravity: 0.01373291015625,
      speed: 1.4500000476837158,
      speedV: 0.8999999761581421,
      distribution: 0.152587890625,
      blowAway: 0,
      bounce: 0.5,
      hitDamage: 0,
      wormExplode: false,
      explGround: true,
      wormDestroy: false,
      bloodOnHit: 0,
      startFrame: 0,
      numFrames: 0,
      drawOnMap: false,
      colorBullets: 10,
      createOnExp: 8,
      affectByExplosions: false,
      dirtEffect: -1,
      splinterAmount: 0,
      splinterColour: 0,
      splinterType: -1,
      bloodTrail: false,
      bloodTrailDelay: 0,
      leaveObj: 8,
      leaveObjDelay: 4,
      timeToExplo: 42,
      timeToExploV: 10,
    },
    {
      detectDistance: 0,
      gravity: 0,
      speed: 4,
      speedV: 8,
      distribution: 0.152587890625,
      blowAway: 0,
      bounce: 1,
      hitDamage: 0,
      wormExplode: false,
      explGround: false,
      wormDestroy: false,
      bloodOnHit: 0,
      startFrame: 0,
      numFrames: 0,
      drawOnMap: false,
      colorBullets: 0,
      createOnExp: -1,
      affectByExplosions: false,
      dirtEffect: 4,
      splinterAmount: 0,
      splinterColour: 0,
      splinterType: -1,
      bloodTrail: false,
      bloodTrailDelay: 0,
      leaveObj: -1,
      leaveObjDelay: 0,
      timeToExplo: 1,
      timeToExploV: 0,
    },
    {
      detectDistance: 0,
      gravity: 0,
      speed: 0.30000001192092896,
      speedV: 0.20000000298023224,
      distribution: 0.4999847412109375,
      blowAway: 0,
      bounce: 0,
      hitDamage: 0,
      wormExplode: true,
      explGround: true,
      wormDestroy: false,
      bloodOnHit: 0,
      startFrame: 181,
      numFrames: 3,
      drawOnMap: true,
      colorBullets: 0,
      createOnExp: -1,
      affectByExplosions: false,
      dirtEffect: 2,
      splinterAmount: 0,
      splinterColour: 0,
      splinterType: -1,
      bloodTrail: false,
      bloodTrailDelay: 0,
      leaveObj: -1,
      leaveObjDelay: 0,
      timeToExplo: 3,
      timeToExploV: 2,
    },
    {
      detectDistance: 6,
      gravity: 0.0152587890625,
      speed: 1.399999976158142,
      speedV: 1,
      distribution: 0.457763671875,
      blowAway: 0,
      bounce: 0.6499999761581421,
      hitDamage: 1,
      wormExplode: false,
      explGround: false,
      wormDestroy: false,
      bloodOnHit: 5,
      startFrame: 0,
      numFrames: 0,
      drawOnMap: true,
      colorBullets: 121,
      createOnExp: -1,
      affectByExplosions: true,
      dirtEffect: -1,
      splinterAmount: 0,
      splinterColour: 0,
      splinterType: -1,
      bloodTrail: false,
      bloodTrailDelay: 0,
      leaveObj: 4,
      leaveObjDelay: 8,
      timeToExplo: 210,
      timeToExploV: 50,
    },
    {
      detectDistance: 3,
      gravity: 0.01287841796875,
      speed: 1,
      speedV: 0.4000000059604645,
      distribution: 0.213623046875,
      blowAway: 0,
      bounce: 0.14000000059604645,
      hitDamage: 1,
      wormExplode: false,
      explGround: false,
      wormDestroy: false,
      bloodOnHit: 0,
      startFrame: 159,
      numFrames: 5,
      drawOnMap: true,
      colorBullets: 0,
      createOnExp: 3,
      affectByExplosions: true,
      dirtEffect: -1,
      splinterAmount: 3,
      splinterColour: 0,
      splinterType: 12,
      bloodTrail: false,
      bloodTrailDelay: 0,
      leaveObj: -1,
      leaveObjDelay: 0,
      timeToExplo: 400,
      timeToExploV: 75,
    },
    {
      detectDistance: 0,
      gravity: 0,
      speed: 2.200000047683716,
      speedV: 0.5,
      distribution: 0.030517578125,
      blowAway: 0.10000000149011612,
      bounce: 0,
      hitDamage: 1,
      wormExplode: true,
      explGround: false,
      wormDestroy: true,
      bloodOnHit: 1,
      startFrame: 0,
      numFrames: 0,
      drawOnMap: false,
      colorBullets: 67,
      createOnExp: 0,
      affectByExplosions: true,
      dirtEffect: -1,
      splinterAmount: 40,
      splinterColour: 0,
      splinterType: 14,
      bloodTrail: false,
      bloodTrailDelay: 0,
      leaveObj: -1,
      leaveObjDelay: 0,
      timeToExplo: 4,
      timeToExploV: 3,
    },
    {
      detectDistance: 0,
      gravity: 0,
      speed: 0.20000000298023224,
      speedV: 0,
      distribution: 0,
      blowAway: 0,
      bounce: 0,
      hitDamage: 0,
      wormExplode: true,
      explGround: true,
      wormDestroy: true,
      bloodOnHit: 0,
      startFrame: 177,
      numFrames: 0,
      drawOnMap: true,
      colorBullets: 0,
      createOnExp: -1,
      affectByExplosions: true,
      dirtEffect: -1,
      splinterAmount: 0,
      splinterColour: 0,
      splinterType: -1,
      bloodTrail: false,
      bloodTrailDelay: 0,
      leaveObj: -1,
      leaveObjDelay: 0,
      timeToExplo: 7,
      timeToExploV: 0,
    },
    {
      detectDistance: 0,
      gravity: 0,
      speed: 1.600000023841858,
      speedV: 0.4000000059604645,
      distribution: 0.4999847412109375,
      blowAway: 0,
      bounce: 0,
      hitDamage: 0,
      wormExplode: true,
      explGround: true,
      wormDestroy: true,
      bloodOnHit: 0,
      startFrame: 181,
      numFrames: 3,
      drawOnMap: true,
      colorBullets: 0,
      createOnExp: -1,
      affectByExplosions: true,
      dirtEffect: 2,
      splinterAmount: 0,
      splinterColour: 0,
      splinterType: -1,
      bloodTrail: false,
      bloodTrailDelay: 0,
      leaveObj: -1,
      leaveObjDelay: 0,
      timeToExplo: 17,
      timeToExploV: 1,
    },
    {
      detectDistance: 3,
      gravity: 0.0152587890625,
      speed: 0,
      speedV: 0,
      distribution: 0,
      blowAway: 0,
      bounce: 0.4000000059604645,
      hitDamage: 0,
      wormExplode: false,
      explGround: false,
      wormDestroy: false,
      bloodOnHit: 0,
      startFrame: 213,
      numFrames: 0,
      drawOnMap: false,
      colorBullets: 0,
      createOnExp: -1,
      affectByExplosions: true,
      dirtEffect: -1,
      splinterAmount: 0,
      splinterColour: 0,
      splinterType: -1,
      bloodTrail: false,
      bloodTrailDelay: 0,
      leaveObj: -1,
      leaveObjDelay: 0,
      timeToExplo: 0,
      timeToExploV: 0,
    },
    {
      detectDistance: 3,
      gravity: 0.0152587890625,
      speed: 0,
      speedV: 0,
      distribution: 0,
      blowAway: 0,
      bounce: 0.4000000059604645,
      hitDamage: 0,
      wormExplode: false,
      explGround: false,
      wormDestroy: false,
      bloodOnHit: 0,
      startFrame: 214,
      numFrames: 0,
      drawOnMap: false,
      colorBullets: 0,
      createOnExp: -1,
      affectByExplosions: true,
      dirtEffect: -1,
      splinterAmount: 0,
      splinterColour: 0,
      splinterType: -1,
      bloodTrail: false,
      bloodTrailDelay: 0,
      leaveObj: -1,
      leaveObjDelay: 0,
      timeToExplo: 0,
      timeToExploV: 0,
    },
    {
      detectDistance: 10,
      gravity: 0.00152587890625,
      speed: 50,
      speedV: 0,
      distribution: 0.4999847412109375,
      blowAway: 1,
      bounce: 1.25,
      hitDamage: 3,
      wormExplode: false,
      explGround: false,
      wormDestroy: true,
      bloodOnHit: 0,
      startFrame: 176,
      numFrames: 0,
      drawOnMap: true,
      colorBullets: 0,
      createOnExp: 0,
      affectByExplosions: true,
      dirtEffect: -1,
      splinterAmount: 150,
      splinterColour: 0,
      splinterType: 19,
      bloodTrail: true,
      bloodTrailDelay: 1,
      leaveObj: 1,
      leaveObjDelay: 1,
      timeToExplo: 2000,
      timeToExploV: 1000,
    },
    {
      detectDistance: 10,
      gravity: 0.00152587890625,
      speed: 50,
      speedV: 0,
      distribution: 0.4999847412109375,
      blowAway: 2.549999952316284,
      bounce: 1.25,
      hitDamage: 5,
      wormExplode: false,
      explGround: false,
      wormDestroy: false,
      bloodOnHit: 0,
      startFrame: 176,
      numFrames: 0,
      drawOnMap: true,
      colorBullets: 0,
      createOnExp: 0,
      affectByExplosions: true,
      dirtEffect: -1,
      splinterAmount: 2,
      splinterColour: 0,
      splinterType: 22,
      bloodTrail: true,
      bloodTrailDelay: 1,
      leaveObj: 0,
      leaveObjDelay: 1,
      timeToExplo: 2000,
      timeToExploV: 1000,
    },
  ],
  sObjects: [
    {
      startSound: 9,
      numSounds: 4,
      animDelay: 2,
      startFrame: 40,
      numFrames: 15,
      detectRange: 20,
      damage: 15,
      blowAway: 0.03814697265625,
      shadow: false,
      shake: 0,
      flash: 0,
      dirtEffect: 0,
    },
    {
      startSound: 9,
      numSounds: 4,
      animDelay: 2,
      startFrame: 45,
      numFrames: 10,
      detectRange: 15,
      damage: 10,
      blowAway: 0.00335693359375,
      shadow: false,
      shake: 1,
      flash: 2,
      dirtEffect: 1,
    },
    {
      startSound: 7,
      numSounds: 2,
      animDelay: 2,
      startFrame: 50,
      numFrames: 5,
      detectRange: 10,
      damage: 5,
      blowAway: 0,
      shadow: false,
      shake: 0,
      flash: 0,
      dirtEffect: 2,
    },
    {
      startSound: -1,
      numSounds: 0,
      animDelay: 4,
      startFrame: 64,
      numFrames: 4,
      detectRange: 0,
      damage: 0,
      blowAway: 0,
      shadow: false,
      shake: 0,
      flash: 0,
      dirtEffect: -1,
    },
    {
      startSound: -1,
      numSounds: 0,
      animDelay: 4,
      startFrame: 100,
      numFrames: 3,
      detectRange: 0,
      damage: 0,
      blowAway: 0,
      shadow: true,
      shake: 6,
      flash: 0,
      dirtEffect: 5,
    },
    {
      startSound: -1,
      numSounds: 0,
      animDelay: 2,
      startFrame: 104,
      numFrames: 3,
      detectRange: 0,
      damage: 0,
      blowAway: 0,
      shadow: false,
      shake: 0,
      flash: 0,
      dirtEffect: -1,
    },
    {
      startSound: -1,
      numSounds: 0,
      animDelay: 2,
      startFrame: 76,
      numFrames: 1,
      detectRange: 0,
      damage: 0,
      blowAway: 0,
      shadow: false,
      shake: 1,
      flash: 0,
      dirtEffect: -1,
    },
    {
      startSound: -1,
      numSounds: 0,
      animDelay: 2,
      startFrame: 91,
      numFrames: 4,
      detectRange: 0,
      damage: 0,
      blowAway: 0,
      shadow: true,
      shake: 0,
      flash: 0,
      dirtEffect: -1,
    },
    {
      startSound: -1,
      numSounds: 0,
      animDelay: 2,
      startFrame: 45,
      numFrames: 6,
      detectRange: 8,
      damage: 5,
      blowAway: 0,
      shadow: false,
      shake: 0,
      flash: 0,
      dirtEffect: 2,
    },
    {
      startSound: -1,
      numSounds: 0,
      animDelay: 2,
      startFrame: 78,
      numFrames: 1,
      detectRange: 0,
      damage: 0,
      blowAway: 0,
      shadow: false,
      shake: 0,
      flash: 0,
      dirtEffect: -1,
    },
    {
      startSound: -1,
      numSounds: 0,
      animDelay: 2,
      startFrame: 108,
      numFrames: 1,
      detectRange: 0,
      damage: 0,
      blowAway: 0,
      shadow: false,
      shake: 1,
      flash: 0,
      dirtEffect: -1,
    },
    {
      startSound: -1,
      numSounds: 0,
      animDelay: 2,
      startFrame: 106,
      numFrames: 1,
      detectRange: 0,
      damage: 0,
      blowAway: 0,
      shadow: false,
      shake: 1,
      flash: 0,
      dirtEffect: -1,
    },
    {
      startSound: -1,
      numSounds: 0,
      animDelay: 2,
      startFrame: 104,
      numFrames: 1,
      detectRange: 0,
      damage: 0,
      blowAway: 0,
      shadow: false,
      shake: 1,
      flash: 0,
      dirtEffect: -1,
    },
    {
      startSound: -1,
      numSounds: 0,
      animDelay: 0,
      startFrame: 0,
      numFrames: 0,
      detectRange: 0,
      damage: 0,
      blowAway: 0,
      shadow: false,
      shake: 0,
      flash: 0,
      dirtEffect: -1,
    },
  ],
  textures: [
    {
      nDrawBack: true,
      mFrame: 0,
      sFrame: 73,
      rFrame: 2,
    },
    {
      nDrawBack: true,
      mFrame: 1,
      sFrame: 73,
      rFrame: 2,
    },
    {
      nDrawBack: true,
      mFrame: 2,
      sFrame: 73,
      rFrame: 2,
    },
    {
      nDrawBack: true,
      mFrame: 37,
      sFrame: 73,
      rFrame: 2,
    },
    {
      nDrawBack: false,
      mFrame: 0,
      sFrame: 87,
      rFrame: 2,
    },
    {
      nDrawBack: true,
      mFrame: 39,
      sFrame: 73,
      rFrame: 2,
    },
    {
      nDrawBack: false,
      mFrame: 38,
      sFrame: 82,
      rFrame: 2,
    },
    {
      nDrawBack: true,
      mFrame: 99,
      sFrame: 73,
      rFrame: 2,
    },
    {
      nDrawBack: true,
      mFrame: 37,
      sFrame: 73,
      rFrame: 2,
    },
  ],
  colorAnim: [
    129,
    131,
    133,
    136,
    152,
    159,
    168,
    171,
  ],
  textSpritesStartIdx: 240,
  crossHairSprite: 153,
}